{
  "main": {
    "id": "701c22e68d2da344",
    "type": "split",
    "children": [
      {
        "id": "ac2b46e67bdfe099",
        "type": "tabs",
        "children": [
          {
            "id": "9a8c455727a0290e",
            "type": "leaf",
            "state": {
              "type": "markdown",
              "state": {
                "file": "Frontend doc/browser/Cookie.md",
                "mode": "source",
                "source": false
              }
            }
          },
          {
            "id": "88324a1d7bf4f1d4",
            "type": "leaf",
            "state": {
              "type": "markdown",
              "state": {
                "file": "Frontend doc/Собес.md",
                "mode": "source",
                "source": false
              }
            }
          },
          {
            "id": "5e98a4ecfb5b78ba",
            "type": "leaf",
            "state": {
              "type": "markdown",
              "state": {
                "file": "Frontend doc/TS/Утилитарные типы.md",
                "mode": "source",
                "source": false
              }
            }
          },
          {
            "id": "5bc284005c6a420f",
            "type": "leaf",
            "state": {
              "type": "markdown",
              "state": {
                "file": "Frontend doc/browser/COORS.md",
                "mode": "source",
                "source": false
              }
            }
          },
          {
            "id": "f6fe2ffe001d1f39",
            "type": "leaf",
            "state": {
              "type": "markdown",
              "state": {
                "file": "Frontend doc/browser/COORS.md",
                "mode": "source",
                "source": false
              }
            }
          }
        ],
        "currentTab": 4
      }
    ],
    "direction": "vertical"
  },
  "left": {
    "id": "b2e3a0cfa7cdc0c4",
    "type": "split",
    "children": [
      {
        "id": "096d1cd4201d0cdb",
        "type": "tabs",
        "children": [
          {
            "id": "b4ff29c6135844f6",
            "type": "leaf",
            "state": {
              "type": "file-explorer",
              "state": {
                "sortOrder": "alphabetical"
              }
            }
          },
          {
            "id": "57dfc694c60b09c2",
            "type": "leaf",
            "state": {
              "type": "search",
              "state": {
                "query": "",
                "matchingCase": false,
                "explainSearch": false,
                "collapseAll": false,
                "extraContext": false,
                "sortOrder": "alphabetical"
              }
            }
          },
          {
            "id": "fa3e1667e94e04dc",
            "type": "leaf",
            "state": {
              "type": "bookmarks",
              "state": {}
            }
          }
        ]
      }
    ],
    "direction": "horizontal",
    "width": 256.5
  },
  "right": {
    "id": "09c4722690dddf9c",
    "type": "split",
    "children": [
      {
        "id": "8db9743391f91f2b",
        "type": "tabs",
        "children": [
          {
            "id": "573df55396c07d2e",
            "type": "leaf",
            "state": {
              "type": "backlink",
              "state": {
                "file": "Frontend doc/browser/COORS.md",
                "collapseAll": false,
                "extraContext": false,
                "sortOrder": "alphabetical",
                "showSearch": false,
                "searchQuery": "",
                "backlinkCollapsed": false,
                "unlinkedCollapsed": true
              }
            }
          },
          {
            "id": "cf5ae8d7988da97f",
            "type": "leaf",
            "state": {
              "type": "outgoing-link",
              "state": {
                "file": "Frontend doc/browser/COORS.md",
                "linksCollapsed": false,
                "unlinkedCollapsed": true
              }
            }
          },
          {
            "id": "46395563c4be573a",
            "type": "leaf",
            "state": {
              "type": "tag",
              "state": {
                "sortOrder": "frequency",
                "useHierarchy": true
              }
            }
          },
          {
            "id": "bbbfb271ff49e4e8",
            "type": "leaf",
            "state": {
              "type": "outline",
              "state": {
                "file": "Frontend doc/browser/COORS.md"
              }
            }
          },
          {
            "id": "2161a2e8d7687fa5",
            "type": "leaf",
            "state": {
              "type": "copilot-chat-view",
              "state": {}
            }
          }
        ],
        "currentTab": 4
      }
    ],
    "direction": "horizontal",
    "width": 200,
    "collapsed": true
  },
  "left-ribbon": {
    "hiddenItems": {
      "switcher:Меню быстрого перехода": false,
      "graph:Граф": false,
      "canvas:Создать новый холст": false,
      "daily-notes:Сегодняшняя заметка": false,
      "templates:Вставить шаблон": false,
      "command-palette:Открыть палитру команд": false,
      "copilot:Copilot Chat": false
    }
  },
  "active": "f6fe2ffe001d1f39",
  "lastOpenFiles": [
    "Frontend doc/HTML/HTML.md",
    "Frontend doc/js/Debouncer.md",
    "Frontend doc/browser/как браузер рендерит страницу.md",
    "Frontend doc/Основные Темы.md",
    "Frontend doc/Задачи Javascript.md",
    "Frontend doc/TS/Утилитарные типы.md",
    "Frontend doc/TS/TS.md",
    "Frontend doc/HTML/Стилизация svg.md",
    "Frontend doc/TS/какие типы, есть в TS но нету в JS.md",
    "Frontend doc/React/Основные темы React.md",
    "Frontend doc/js/Promise.md",
    "Frontend doc/js/Замыкание.md",
    "Frontend doc/React/Инфинити скролл.md",
    "Frontend doc/CSS/SASS/Операторы.md",
    "Frontend doc/Архитектура/webpack разделить бандл реакт на чанки.md",
    "Frontend doc/Архитектура/Module Federation.md",
    "Frontend doc/browser/Cookie.md",
    "Frontend doc/Intersection Observer API.md",
    "Frontend doc/JWT Next.md",
    "Frontend doc/HR.md",
    "Frontend doc/Шпаргалка алгоритмы.md",
    "Frontend doc/Тестирование.md",
    "Frontend doc/Статистика собесов.md",
    "Frontend doc/Вопросы на собеседовании JS.md",
    "Frontend doc/React/Suspens.md",
    "Frontend doc/React/createPortal.md",
    "Frontend doc/NextJS",
    "Frontend doc/React/Хуки/Кастомные хуки",
    "Frontend doc/TS",
    "Frontend doc/SOLID",
    "Frontend doc/Архитектура",
    "Frontend doc/Проведение_собеседований_b3377a1465a741889ef4c7b4c5c5d1a9.pdf",
    "Frontend doc/js/Event Loop",
    "Frontend doc/browser",
    "Frontend doc/React/Хуки",
    "Frontend doc/CSS/SASS",
    "Без названия.canvas"
  ]
}